<?xml version="1.0" standalone="no"?>
<!DOCTYPE svg PUBLIC "-//W3C//DTD SVG 20010904//EN"
 "http://www.w3.org/TR/2001/REC-SVG-20010904/DTD/svg10.dtd">
<svg version="1.0" xmlns="http://www.w3.org/2000/svg"
 width="512.000000pt" height="512.000000pt" viewBox="0 0 512.000000 512.000000"
 preserveAspectRatio="xMidYMid meet">

<g transform="translate(0.000000,512.000000) scale(0.100000,-0.100000)"
fill="#000000" stroke="none">
<path d="M2490 4498 c-64 -33 -85 -67 -85 -138 0 -90 54 -149 142 -157 170
-14 235 221 81 296 -56 27 -83 27 -138 -1z"/>
<path d="M1833 4422 l-32 -28 84 -72 c152 -130 323 -347 416 -527 l52 -100
205 1 205 2 54 103 c96 185 262 395 414 525 l80 68 -32 27 -33 26 -75 -64
c-231 -197 -497 -285 -737 -242 -175 31 -361 125 -506 258 -31 28 -57 51 -59
51 -2 -1 -18 -13 -36 -28z"/>
<path d="M4361 3285 c-13 -20 -67 -79 -118 -130 -148 -149 -310 -268 -479
-353 l-81 -41 8 -48 c10 -59 10 -242 1 -303 l-7 -45 98 -53 c219 -117 431
-289 581 -472 l28 -34 28 34 28 35 -42 45 c-106 113 -202 278 -248 423 -19 61
-23 94 -23 217 0 124 3 156 23 220 45 144 133 296 236 407 l54 59 -31 37 -32
38 -24 -36z"/>
<path d="M692 3279 l-24 -29 60 -67 c207 -235 298 -514 248 -763 -34 -165
-114 -324 -237 -469 l-69 -81 28 -31 27 -31 69 81 c79 92 208 208 327 293 81
58 238 151 286 169 24 9 24 12 18 62 -10 67 -10 227 -1 293 l8 52 -86 45
c-202 107 -350 221 -514 392 -60 63 -111 115 -113 114 -2 0 -14 -13 -27 -30z"/>
<path d="M690 2702 c-134 -73 -103 -270 47 -298 49 -9 117 20 151 64 35 46 39
135 6 178 -51 69 -137 93 -204 56z"/>
<path d="M4285 2700 c-53 -27 -77 -63 -83 -121 -6 -60 10 -100 53 -138 63 -55
154 -49 215 14 29 30 34 43 38 94 5 75 -21 124 -82 152 -53 24 -92 24 -141 -1z"/>
<path d="M2324 1369 c-107 -213 -269 -422 -440 -569 l-84 -72 36 -29 37 -29
61 57 c126 117 311 216 463 248 99 21 242 19 342 -5 149 -36 321 -130 448
-245 l59 -53 34 29 35 29 -45 37 c-183 152 -345 354 -467 579 l-48 90 -40 -8
c-55 -10 -260 -9 -313 1 l-43 8 -35 -68z"/>
<path d="M2477 898 c-42 -25 -77 -86 -77 -137 0 -46 34 -106 75 -131 30 -18
47 -22 96 -18 51 4 64 9 94 38 81 78 62 204 -37 256 -40 21 -107 17 -151 -8z"/>
</g>
</svg>
